…
Without fail, I’d hit a wall at some point, miss a week or two of running, get some aches that would require some rest, and fall behind enough to forget or give up.

As 2020 approached, I wanted to try gain, but also give myself shorter-term, achievable goals to keep motivated. I came up with some other goals, too - to ride my bike 2,000 miles, to read 5,000 pages, and to keep the time looking at my phone below 2 hours per day.

Having built a few dashboards for Open Justice Oklahoma, I decided to build myself something to track these goals in a way that would help me maintain my motivation. The result is this dashboard built with the incredibly handy flexdashboard package.

Getting the data

tl;dr I set up my dashboard to pull in running and cycling data from Strava using the rStrava package and reading and phone time entries from a Google Form. Getting the authentication to have the Shiny server talk to Google was the most challenging/frustrating part. If you’re hoping to do something similar, I would recommend being very patient and persistent in getting one of the methods described by Mark Edmondson to work for you.

The data was wrangled into tidy format to look like this:

d

## # A tibble: 185 x 5
##    week       type  value  goal pct_goal
##    <date>     <fct> <dbl> <dbl>    <dbl>
##  1 2019-12-29 Ride   58.8    40    1    
##  2 2019-12-29 Run    16.1    20    0.805
##  3 2020-01-05 Run    14.4    20    0.72 
##  4 2020-01-12 Run    26.3    20    1    
##  5 2020-01-19 Ride   44      40    1    
##  6 2020-01-19 Run    20.3    20    1    
##  7 2020-01-26 Ride   42.8    40    1    
##  8 2020-01-26 Run    16      20    0.8  
##  9 2020-02-02 Ride   58.2    40    1    
## 10 2020-02-02 Run    20.5    20    1    
## # … with 175 more rows
…
